<?xml version="1.0" encoding="utf-8"?>
<!-- Generator: Adobe Illustrator 24.2.3, SVG Export Plug-In . SVG Version: 6.00 Build 0)  -->
<svg version="1.1" id="Layer_1" xmlns="http://www.w3.org/2000/svg" xmlns:xlink="http://www.w3.org/1999/xlink" x="0px" y="0px"
	 viewBox="0 0 430.6 88.6" style="enable-background:new 0 0 430.6 88.6;" xml:space="preserve">
<style type="text/css">
	.st0{fill:#FFFFFF;}
	.st1{fill:url(#SVGID_1_);}
	.st2{fill:url(#SVGID_2_);}
	.st3{fill:url(#SVGID_3_);}
	.st4{fill:url(#SVGID_4_);}
	.st5{fill:url(#SVGID_5_);}
	.st6{fill:url(#SVGID_6_);}
	.st7{fill:url(#SVGID_7_);}
	.st8{fill:url(#SVGID_8_);}
	.st9{fill:url(#SVGID_9_);}
	.st10{fill:url(#SVGID_10_);}
	.st11{fill:url(#SVGID_11_);}
	.st12{fill:url(#SVGID_12_);}
	.st13{fill:url(#SVGID_13_);}
	.st14{fill:url(#SVGID_14_);}
	.st15{fill:#444444;}
</style>
<circle class="st0" cx="44.2" cy="44.2" r="44.2"/>
<linearGradient id="SVGID_1_" gradientUnits="userSpaceOnUse" x1="9.1489" y1="1033.5659" x2="53.398" y2="1110.2073" gradientTransform="matrix(1 0 0 1 0 -1020)">
	<stop  offset="0" style="stop-color:#16FDC4"/>
	<stop  offset="1" style="stop-color:#02A5F9"/>
</linearGradient>
<path class="st1" d="M16.5,36.1c1.7-1,3.6-1.8,5.6-2.2c0-1.9,1-3.4,2.5-4.3c-0.5-1.9-0.8-3.9-0.8-5.9c0-3.6,0.8-6.8,2.3-9.6
	c-6.5,0.4-12.8,3.9-16.2,10C6.3,30.2,6.4,37.3,9.5,43C11.2,40.2,13.5,37.9,16.5,36.1z"/>
<linearGradient id="SVGID_2_" gradientUnits="userSpaceOnUse" x1="4.5574" y1="1036.2167" x2="48.8063" y2="1112.8583" gradientTransform="matrix(1 0 0 1 0 -1020)">
	<stop  offset="0" style="stop-color:#16FDC4"/>
	<stop  offset="1" style="stop-color:#02A5F9"/>
</linearGradient>
<path class="st2" d="M26,34.7c-3,0.2-6.2,1-8.9,2.7c-3,1.7-5.4,4.2-7.1,6.9c1.8,2.7,4.1,5.1,7.1,6.9c2.8,1.6,5.9,2.4,8.9,2.6
	c-1.5-2.8-2.3-6.2-2.3-9.6C23.7,40.8,24.5,37.6,26,34.7z"/>
<linearGradient id="SVGID_3_" gradientUnits="userSpaceOnUse" x1="36.1222" y1="1017.9928" x2="80.3712" y2="1094.6344" gradientTransform="matrix(1 0 0 1 0 -1020)">
	<stop  offset="0" style="stop-color:#16FDC4"/>
	<stop  offset="1" style="stop-color:#02A5F9"/>
</linearGradient>
<path class="st3" d="M42.3,19.4c0.7-0.5,1.7-0.7,2.6-0.7s1.7,0.2,2.5,0.6c1.4-1.4,2.8-2.6,4.6-3.7c3-1.7,6.3-2.6,9.5-2.8
	c-3.6-5.4-9.7-9.1-16.8-9.1c-6.9,0-13.1,3.7-16.8,9.2c3.2,0.2,6.5,1,9.5,2.8C39.5,16.6,40.9,18,42.3,19.4z"/>
<linearGradient id="SVGID_4_" gradientUnits="userSpaceOnUse" x1="22.6621" y1="1025.7642" x2="66.9111" y2="1102.4055" gradientTransform="matrix(1 0 0 1 0 -1020)">
	<stop  offset="0" style="stop-color:#16FDC4"/>
	<stop  offset="1" style="stop-color:#02A5F9"/>
</linearGradient>
<path class="st4" d="M27.1,32.8c3.7-5.6,9.7-9.2,16.8-9.6c-1.7-2.5-4-4.8-6.8-6.4c-3-1.7-6.4-2.6-9.6-2.7c-1.6,2.8-2.5,6.2-2.4,9.7
	C24.9,27,25.6,30,27.1,32.8z"/>
<linearGradient id="SVGID_5_" gradientUnits="userSpaceOnUse" x1="40.8038" y1="1015.2899" x2="85.0529" y2="1091.9314" gradientTransform="matrix(1 0 0 1 0 -1020)">
	<stop  offset="0" style="stop-color:#16FDC4"/>
	<stop  offset="1" style="stop-color:#02A5F9"/>
</linearGradient>
<path class="st5" d="M79.9,44.3c-1.8-2.8-4.2-5.1-7.1-6.9c-2.8-1.6-5.9-2.4-8.9-2.6c1.5,2.8,2.3,6.2,2.3,9.6c0,3.6-0.8,6.8-2.3,9.6
	c3-0.1,6.2-1,8.9-2.7C75.7,49.5,78.1,47.1,79.9,44.3z"/>
<linearGradient id="SVGID_6_" gradientUnits="userSpaceOnUse" x1="40.9665" y1="1015.1959" x2="85.2155" y2="1091.8374" gradientTransform="matrix(1 0 0 1 0 -1020)">
	<stop  offset="0" style="stop-color:#16FDC4"/>
	<stop  offset="1" style="stop-color:#02A5F9"/>
</linearGradient>
<path class="st6" d="M46.2,23.1c6.9,0.3,13.1,4.1,16.8,9.6c1.4-2.7,2.1-5.8,2.1-9c0-3.6-0.9-6.9-2.4-9.7c-3.4,0.1-6.6,0.9-9.6,2.7
	C50.2,18.3,47.9,20.5,46.2,23.1z"/>
<linearGradient id="SVGID_7_" gradientUnits="userSpaceOnUse" x1="51.1842" y1="1009.2967" x2="95.4331" y2="1085.9384" gradientTransform="matrix(1 0 0 1 0 -1020)">
	<stop  offset="0" style="stop-color:#16FDC4"/>
	<stop  offset="1" style="stop-color:#02A5F9"/>
</linearGradient>
<path class="st7" d="M64,14c1.5,2.8,2.3,6.2,2.3,9.6c0,1.9-0.2,3.9-0.8,5.8c1.6,0.9,2.7,2.5,2.7,4.5c1.9,0.4,3.6,1.3,5.3,2.2
	c2.9,1.8,5.3,4.2,7.1,6.9c0.6-1.3,1-2.5,1.5-3.9c0.4-1.8,0.6-3.5,0.6-5.2c0-3.5-0.9-6.9-2.7-10C76.6,18,70.4,14.4,64,14z"/>
<linearGradient id="SVGID_8_" gradientUnits="userSpaceOnUse" x1="36.3307" y1="1017.8723" x2="80.5796" y2="1094.5139" gradientTransform="matrix(1 0 0 1 0 -1020)">
	<stop  offset="0" style="stop-color:#16FDC4"/>
	<stop  offset="1" style="stop-color:#02A5F9"/>
</linearGradient>
<path class="st8" d="M82,49.4c-0.4-1.4-0.8-2.7-1.5-3.9c-1.8,2.8-4.2,5.1-7.1,6.9c-1.7,1-3.6,1.8-5.3,2.2c0,1.9-1,3.7-2.7,4.5
	c0.5,1.7,0.8,3.7,0.8,5.8c0,3.6-0.8,6.8-2.3,9.6c6.5-0.4,12.8-3.9,16.2-10c1.8-3,2.7-6.5,2.5-10C82.6,52.9,82.4,51.2,82,49.4z"/>
<linearGradient id="SVGID_9_" gradientUnits="userSpaceOnUse" x1="22.1986" y1="1026.1191" x2="66.4014" y2="1102.6808" gradientTransform="matrix(1 0 0 1 0 -1020)">
	<stop  offset="0" style="stop-color:#16FDC4"/>
	<stop  offset="1" style="stop-color:#02A5F9"/>
</linearGradient>
<path class="st9" d="M44.3,0.2C19.9,0.2,0.1,20,0.1,44.4s19.8,44.2,44.2,44.2s44.2-19.8,44.2-44.2S68.7,0.2,44.3,0.2z M81.3,65.6
	c-3,5.1-7.9,8.6-13.2,10c0,2.8-2.2,5.1-5.1,5.1c-0.9,0-1.9-0.3-2.6-0.7c-3.9,4-9.2,6.5-15.3,6.5c-6,0-11.3-2.5-15.3-6.5
	c-0.7,0.4-1.6,0.6-2.5,0.6c-2.8,0-5.1-2.2-5.1-5.1c-5.4-1.4-10.4-4.8-13.4-10.1C6.9,62,6,58.5,6,54.8c0-1.7,0.3-3.6,0.7-5.3
	C4.6,48.9,3,46.9,3,44.6c0-2.3,1.6-4.3,3.7-4.9C6.2,38,6,36.1,6,34.4c0-3.7,0.9-7.2,2.8-10.6c3-5.1,8.1-8.8,13.4-10.1
	c0-2.8,2.2-5.1,5.1-5.1c0.9,0,1.7,0.2,2.5,0.6c3.9-4,9.3-6.5,15.3-6.5s11.4,2.5,15.3,6.5c0.7-0.5,1.7-0.7,2.6-0.7
	c2.8,0,5.1,2.2,5.1,5.1c5.4,1.4,10.3,4.7,13.2,10c3,5.1,3.7,11.2,2.1,16.5c1.5,0.9,2.5,2.6,2.5,4.5s-1,3.6-2.5,4.6
	C84.8,54.3,84.3,60.3,81.3,65.6L81.3,65.6z"/>
<linearGradient id="SVGID_10_" gradientUnits="userSpaceOnUse" x1="22.5592" y1="1025.8232" x2="66.8082" y2="1102.4648" gradientTransform="matrix(1 0 0 1 0 -1020)">
	<stop  offset="0" style="stop-color:#16FDC4"/>
	<stop  offset="1" style="stop-color:#02A5F9"/>
</linearGradient>
<path class="st10" d="M62.7,56c-3.7,5.6-9.7,9.2-16.8,9.6c1.7,2.5,4,4.8,6.8,6.4c3,1.7,6.4,2.6,9.6,2.7c1.6-2.9,2.5-6.3,2.4-9.7
	C64.8,61.8,64.2,58.7,62.7,56z"/>
<linearGradient id="SVGID_11_" gradientUnits="userSpaceOnUse" x1="9.2448" y1="1033.5106" x2="53.4939" y2="1110.152" gradientTransform="matrix(1 0 0 1 0 -1020)">
	<stop  offset="0" style="stop-color:#16FDC4"/>
	<stop  offset="1" style="stop-color:#02A5F9"/>
</linearGradient>
<path class="st11" d="M48.2,70.2c-0.9,0.7-2,1-3.1,1c-1.3,0-2.3-0.4-3.2-1.3c-1.3,1.3-2.6,2.2-4.1,3c-3,1.7-6.3,2.6-9.5,2.8
	c3.6,5.4,9.7,9.1,16.8,9.1c7.1,0,13.2-3.7,16.9-9.1c-3.2-0.2-6.5-1-9.5-2.8C50.7,72.3,49.4,71.2,48.2,70.2z"/>
<linearGradient id="SVGID_12_" gradientUnits="userSpaceOnUse" x1="-5.7745" y1="1042.1818" x2="38.4746" y2="1118.8234" gradientTransform="matrix(1 0 0 1 0 -1020)">
	<stop  offset="0" style="stop-color:#16FDC4"/>
	<stop  offset="1" style="stop-color:#02A5F9"/>
</linearGradient>
<path class="st12" d="M24.4,58.9c-1.5-0.8-2.5-2.5-2.5-4.3c-1.9-0.4-3.8-1.3-5.6-2.2c-2.9-1.7-5.3-4.1-7.1-6.8
	c-1.4,2.8-2.1,6-2.1,9.1c0,3.4,0.8,6.8,2.7,10c3.6,6.1,9.6,9.5,16.1,9.7c-1.5-2.8-2.3-6.2-2.3-9.6C23.6,62.7,23.8,60.7,24.4,58.9z"
	/>
<linearGradient id="SVGID_13_" gradientUnits="userSpaceOnUse" x1="4.4047" y1="1036.3049" x2="48.6538" y2="1112.9464" gradientTransform="matrix(1 0 0 1 0 -1020)">
	<stop  offset="0" style="stop-color:#16FDC4"/>
	<stop  offset="1" style="stop-color:#02A5F9"/>
</linearGradient>
<path class="st13" d="M43.8,65.7c-7.1-0.3-13.1-4.2-16.8-9.6c-1.4,2.7-2.1,5.8-2.1,9c0,3.5,0.9,6.8,2.4,9.7c3.4-0.1,6.6-0.9,9.6-2.7
	C39.8,70.4,42.1,68.3,43.8,65.7z"/>
<path class="st0" d="M51.4,37.5c-1-2.4-3.6-2.9-6.5-2.4l-1-3.8l-2.3,0.6l0.9,3.8c-0.6,0.1-1.3,0.3-1.8,0.4l-0.9-3.8l-2.3,0.6
	l0.9,3.8c-0.5,0.1-4.6,1.2-4.6,1.2l0.6,2.4l1.7-0.4c0.9-0.2,1.4,0.2,1.6,0.6l2.6,10.3c0,0.3,0,0.8-0.6,0.9L38,52.1l0.2,2.8
	c0,0,4.1-1,4.6-1.2l0.9,3.8l2.3-0.6l-0.8-3.7c0.6-0.1,1.3-0.3,1.8-0.4l0.9,3.8l2.3-0.6l-0.9-3.8c3.6-0.8,6-3,5.4-6.5
	c-0.3-2-2.5-3.7-4.4-3.9C51.5,40.9,52.1,39.4,51.4,37.5z M50.4,46.4c0.4,3.4-4.2,3.8-5.8,4.2l-1.4-5C44.8,45.1,49.5,43.5,50.4,46.4z
	 M47.5,39.6c0.5,2.9-3.5,3.4-4.8,3.7l-1.3-4.5C42.8,38.4,46.5,36.9,47.5,39.6z"/>
<linearGradient id="SVGID_14_" gradientUnits="userSpaceOnUse" x1="176.4111" y1="-776.6348" x2="216.1411" y2="-776.6348" gradientTransform="matrix(0.5768 0.8169 -0.8169 0.5768 -702.7166 332.0654)">
	<stop  offset="0" style="stop-color:#16FDC4"/>
	<stop  offset="1" style="stop-color:#02A5F9"/>
</linearGradient>
<circle class="st14" cx="44.9" cy="44.4" r="19.9"/>
<path class="st0" d="M51.2,37.7c-1-2.3-3.2-2.7-6.1-2.3l-0.9-3.5l-2.1,0.5l0.8,3.5c-0.5,0.1-1.2,0.3-1.7,0.4l-0.8-3.5l-2.1,0.5
	l0.9,3.5c-0.4,0.1-4.3,1.2-4.3,1.2l0.6,2.3l1.6-0.4c0.8-0.2,1.3,0.2,1.5,0.6l2.5,9.6c0,0.3,0,0.7-0.6,0.9l-1.6,0.4l0.2,2.6
	c0,0,3.8-0.9,4.3-1l0.9,3.6l2.1-0.5l-0.9-3.6c0.6-0.1,1.2-0.3,1.7-0.4l0.9,3.6l2.1-0.5l-0.9-3.6c3.2-0.8,5.6-2.8,5.1-6.1
	c-0.3-1.9-2.4-3.5-4.1-3.7C51.3,40.9,51.8,39.6,51.2,37.7z M50.2,46.1c0.4,3.1-3.9,3.6-5.3,3.9l-1.3-4.6
	C44.9,44.9,49.4,43.4,50.2,46.1z M47.5,39.7c0.4,2.8-3.2,3.1-4.5,3.5l-1.2-4.3C43.1,38.5,46.6,37.2,47.5,39.7z"/>
<g>
	<path class="st15" d="M114.3,26.9h22.4v2.8h-19.4v13.1h19v2.8h-19v14h19.4v2.8h-22.4V26.9z"/>
	<path class="st15" d="M144.1,26.9h2.8v35.4h-2.8V26.9z"/>
	<path class="st15" d="M166.3,36c7.8,0,12.1,6.2,12.1,13.6v0.7H157c0.3,5.6,4,10.2,10,10.2c3.3,0,6.2-1.2,8.4-3.6l1.4,1.8
		c-2.5,2.7-5.8,4.1-10,4.1c-7.5,0-12.8-5.6-12.8-13.5C153.9,42,159.2,36,166.3,36z M156.9,48.2h18.6c-0.1-4.3-2.9-9.8-9.3-9.8
		C160.2,38.4,157.1,43.7,156.9,48.2z"/>
	<path class="st15" d="M196.4,36c4.4,0,7,1.7,9.1,4.3l-1.9,1.7c-1.9-2.5-4.2-3.6-7-3.6c-6,0-9.6,4.8-9.6,10.9c0,6.1,3.7,11,9.6,11
		c2.8,0,5.1-1.1,7-3.6l1.9,1.7c-2.1,2.6-4.7,4.4-9.1,4.4c-7.5,0-12.5-6-12.5-13.5C184,42,188.9,36,196.4,36z"/>
	<path class="st15" d="M212.2,57.3V39.1H208v-2.5h4.2v-7h2.8v7h5.2v2.5H215v17.8c0,2.1,0.8,3.5,2.6,3.5c1.2,0,2.3-0.6,2.9-1.2
		l1.1,2.1c-1,1-2.2,1.6-4.3,1.6C213.8,62.9,212.2,60.8,212.2,57.3z"/>
	<path class="st15" d="M226.2,36.7h2.8v4.4c2.2-2.9,5.1-4.9,8.6-4.9v3c-0.5-0.1-0.8-0.1-1.4-0.1c-2.6,0-6.1,2.3-7.3,4.6v18.6h-2.8
		L226.2,36.7L226.2,36.7z"/>
	<path class="st15" d="M260.3,58.5c-2.1,2.3-5.5,4.4-9.2,4.4c-5.2,0-8.1-2.4-8.1-8.2v-18h2.8v17.4c0,5,2.5,6.4,6.2,6.4
		c3.3,0,6.6-2,8.3-4.2V36.8h2.8v25.5h-2.8L260.3,58.5L260.3,58.5z"/>
	<path class="st15" d="M300,44.4c0-3.6-1.5-5.8-5.1-5.8c-2.8,0-5.9,2-7.3,4.3v19.4h-2.8V44.4c0-3.6-1.5-5.8-5.1-5.8
		c-2.7,0-5.8,2.1-7.3,4.4v19.3h-2.8V36.7h2.8v3.9c1.1-1.6,4.6-4.5,8.3-4.5c4,0,6.1,2.3,6.7,4.8c1.4-2.4,4.9-4.8,8.5-4.8
		c4.7,0,7,2.6,7,7.8v18.4h-2.8V44.4H300z"/>
	<path class="st15" d="M323.8,43.8c0.6-10.8,8.8-17.8,18.7-17.3c5.7,0.3,9.8,3,12.6,6.9l-2.6,1.5c-2.1-3.2-5.8-5.5-10.2-5.7
		c-8.2-0.4-14.9,5.5-15.4,14.7c-0.5,9.1,5.6,15.8,13.8,16.3c4.3,0.2,8.3-1.6,10.7-4.6l2.5,1.7c-3.3,3.7-7.6,5.9-13.3,5.6
		C330.8,62.5,323.3,54.7,323.8,43.8z"/>
	<path class="st15" d="M376.9,59.3c-2.3,2.5-5.1,3.7-8.7,3.7c-4.4,0-9-3-9-8.5c0-5.6,4.5-8.4,9-8.4c3.5,0,6.4,1.1,8.7,3.6v-5.2
		c0-3.8-3.1-5.9-6.9-5.9c-3.2,0-5.7,1.1-8,3.8l-1.5-1.9c2.6-2.9,5.6-4.3,9.8-4.3c5.2,0,9.4,2.5,9.4,8.2v18h-2.8V59.3z M376.9,51.6
		c-1.8-2.3-4.7-3.6-7.7-3.6c-4.2,0-7,2.8-7,6.4s2.8,6.3,7,6.3c3.1,0,5.9-1.2,7.7-3.5V51.6z"/>
	<path class="st15" d="M386.6,56.8c1.6,2.1,4.6,3.8,8.3,3.8c4.3,0,6.8-2.1,6.8-5.1c0-3.3-3.5-4.2-7.2-5.2c-4.2-1.1-9-2.2-9-7.2
		c0-3.9,3.3-7.1,9.1-7.1c4.4,0,7.3,1.7,9.2,3.8l-1.5,1.9c-1.5-2-4.2-3.4-7.6-3.4c-4,0-6.4,2-6.4,4.6c0,2.9,3.3,3.7,6.8,4.6
		c4.4,1.1,9.3,2.3,9.3,7.8c0,4.1-3.2,7.5-9.6,7.5c-4.1,0-7.3-1.2-9.9-4L386.6,56.8z"/>
	<path class="st15" d="M427.8,44.8c0-4.9-2.5-6.3-6.2-6.3c-3.3,0-6.7,2.1-8.3,4.4v19.4h-2.8V27h2.8v13.6c1.9-2.2,5.5-4.5,9.2-4.5
		c5.2,0,8.1,2.4,8.1,8.2v18h-2.8L427.8,44.8L427.8,44.8z"/>
</g>
</svg>
