<?xml version="1.0" encoding="utf-8"?>
<!-- Generator: Adobe Illustrator 24.2.3, SVG Export Plug-In . SVG Version: 6.00 Build 0)  -->
<svg version="1.1" id="Layer_1" xmlns="http://www.w3.org/2000/svg" xmlns:xlink="http://www.w3.org/1999/xlink" x="0px" y="0px"
	 viewBox="0 0 316.5 237.8" style="enable-background:new 0 0 316.5 237.8;" xml:space="preserve">
<style type="text/css">
	.st0{fill:#FFFFFF;}
	.st1{fill:url(#SVGID_1_);}
	.st2{fill:url(#SVGID_2_);}
	.st3{fill:url(#SVGID_3_);}
	.st4{fill:url(#SVGID_4_);}
	.st5{fill:url(#SVGID_5_);}
	.st6{fill:url(#SVGID_6_);}
	.st7{fill:url(#SVGID_7_);}
	.st8{fill:url(#SVGID_8_);}
	.st9{fill:url(#SVGID_9_);}
	.st10{fill:url(#SVGID_10_);}
	.st11{fill:url(#SVGID_11_);}
	.st12{fill:url(#SVGID_12_);}
	.st13{fill:url(#SVGID_13_);}
	.st14{fill:url(#SVGID_14_);}
	.st15{fill:#444444;}
	.st16{fill:#737373;}
</style>
<circle class="st0" cx="154.5" cy="68.7" r="68.7"/>
<linearGradient id="SVGID_1_" gradientUnits="userSpaceOnUse" x1="99.9619" y1="-21.2111" x2="168.7309" y2="-140.3224" gradientTransform="matrix(1 0 0 -1 0 0)">
	<stop  offset="0" style="stop-color:#16FDC4"/>
	<stop  offset="1" style="stop-color:#02A5F9"/>
</linearGradient>
<path class="st1" d="M111.5,56.2c2.6-1.6,5.5-2.8,8.6-3.4c0-2.9,1.6-5.2,3.9-6.7c-0.8-2.9-1.3-6-1.3-9.1c0-5.5,1.3-10.6,3.6-15
	c-10.1,0.7-19.9,6-25.2,15.5c-5.5,9.4-5.4,20.5-0.7,29.3C103.2,62.6,106.8,59,111.5,56.2z"/>
<linearGradient id="SVGID_2_" gradientUnits="userSpaceOnUse" x1="92.9223" y1="-25.2752" x2="161.6911" y2="-144.3866" gradientTransform="matrix(1 0 0 -1 0 0)">
	<stop  offset="0" style="stop-color:#16FDC4"/>
	<stop  offset="1" style="stop-color:#02A5F9"/>
</linearGradient>
<path class="st2" d="M126.2,53.9c-4.7,0.3-9.6,1.6-13.8,4.2c-4.7,2.6-8.5,6.5-11.1,10.7c2.8,4.2,6.3,8,11.1,10.7
	c4.4,2.4,9.1,3.7,13.8,4.1c-2.3-4.4-3.6-9.6-3.6-15C122.6,63.5,123.9,58.5,126.2,53.9z"/>
<linearGradient id="SVGID_3_" gradientUnits="userSpaceOnUse" x1="142.1932" y1="3.1712" x2="210.9622" y2="-115.9402" gradientTransform="matrix(1 0 0 -1 0 0)">
	<stop  offset="0" style="stop-color:#16FDC4"/>
	<stop  offset="1" style="stop-color:#02A5F9"/>
</linearGradient>
<path class="st3" d="M151.6,30.2c1.1-0.8,2.6-1.1,4.1-1.1s2.6,0.3,3.9,1c2.1-2.1,4.4-4.1,7.2-5.7c4.7-2.6,9.8-4.1,14.8-4.4
	c-5.5-8.5-15.1-14.2-26-14.2c-10.7,0-20.3,5.7-26,14.3c5,0.3,10.1,1.6,14.8,4.4C147.2,25.9,149.5,28,151.6,30.2z"/>
<linearGradient id="SVGID_4_" gradientUnits="userSpaceOnUse" x1="121.089" y1="-9.0132" x2="189.858" y2="-128.1245" gradientTransform="matrix(1 0 0 -1 0 0)">
	<stop  offset="0" style="stop-color:#16FDC4"/>
	<stop  offset="1" style="stop-color:#02A5F9"/>
</linearGradient>
<path class="st4" d="M128,51c5.7-8.6,15.1-14.3,26-15c-2.6-3.9-6.2-7.5-10.6-9.9c-4.7-2.6-9.9-4.1-15-4.2c-2.4,4.4-3.9,9.6-3.7,15.1
	C124.6,42,125.7,46.8,128,51z"/>
<linearGradient id="SVGID_5_" gradientUnits="userSpaceOnUse" x1="149.2121" y1="7.2236" x2="217.9812" y2="-111.8877" gradientTransform="matrix(1 0 0 -1 0 0)">
	<stop  offset="0" style="stop-color:#16FDC4"/>
	<stop  offset="1" style="stop-color:#02A5F9"/>
</linearGradient>
<path class="st5" d="M210,68.9c-2.8-4.4-6.5-8-11.1-10.7c-4.4-2.4-9.1-3.7-13.8-4.1c2.3,4.4,3.6,9.6,3.6,15c0,5.5-1.3,10.6-3.6,15
	c4.7-0.2,9.6-1.6,13.8-4.2C203.5,77,207.3,73.3,210,68.9z"/>
<linearGradient id="SVGID_6_" gradientUnits="userSpaceOnUse" x1="149.4394" y1="7.3548" x2="218.2082" y2="-111.7564" gradientTransform="matrix(1 0 0 -1 0 0)">
	<stop  offset="0" style="stop-color:#16FDC4"/>
	<stop  offset="1" style="stop-color:#02A5F9"/>
</linearGradient>
<path class="st6" d="M157.6,36c10.7,0.5,20.3,6.3,26,15c2.1-4.2,3.3-9,3.3-14c0-5.5-1.5-10.7-3.7-15.1c-5.2,0.2-10.3,1.5-15,4.2
	C163.8,28.5,160.2,32,157.6,36z"/>
<linearGradient id="SVGID_7_" gradientUnits="userSpaceOnUse" x1="165.3526" y1="16.5425" x2="234.1217" y2="-102.5691" gradientTransform="matrix(1 0 0 -1 0 0)">
	<stop  offset="0" style="stop-color:#16FDC4"/>
	<stop  offset="1" style="stop-color:#02A5F9"/>
</linearGradient>
<path class="st7" d="M185.3,21.9c2.3,4.4,3.6,9.6,3.6,15c0,2.9-0.3,6-1.3,9c2.4,1.5,4.2,3.9,4.2,7c2.9,0.7,5.5,2,8.3,3.4
	c4.6,2.8,8.3,6.5,11.1,10.7c1-2,1.6-3.9,2.3-6c0.7-2.8,1-5.4,1-8.1c0-5.4-1.5-10.7-4.2-15.5C204.8,28,195.2,22.5,185.3,21.9z"/>
<linearGradient id="SVGID_8_" gradientUnits="userSpaceOnUse" x1="142.2476" y1="3.2028" x2="211.0164" y2="-115.9086" gradientTransform="matrix(1 0 0 -1 0 0)">
	<stop  offset="0" style="stop-color:#16FDC4"/>
	<stop  offset="1" style="stop-color:#02A5F9"/>
</linearGradient>
<path class="st8" d="M213.3,76.9c-0.7-2.1-1.3-4.2-2.3-6c-2.8,4.4-6.5,8-11.1,10.7c-2.6,1.6-5.5,2.8-8.3,3.4c0,2.9-1.6,5.7-4.2,7
	c0.8,2.6,1.3,5.7,1.3,9c0,5.5-1.3,10.6-3.6,15c10.1-0.7,19.9-6,25.2-15.5c2.8-4.7,4.2-10.1,3.9-15.5
	C214.3,82.3,213.9,79.7,213.3,76.9z"/>
<linearGradient id="SVGID_9_" gradientUnits="userSpaceOnUse" x1="120.3529" y1="-9.6091" x2="189.0471" y2="-128.5909" gradientTransform="matrix(1 0 0 -1 0 0)">
	<stop  offset="0" style="stop-color:#16FDC4"/>
	<stop  offset="1" style="stop-color:#02A5F9"/>
</linearGradient>
<path class="st9" d="M154.7,0.4C116.8,0.4,86,31.2,86,69.1s30.8,68.7,68.7,68.7s68.7-30.8,68.7-68.7S192.6,0.4,154.7,0.4z
	 M212.1,102c-4.7,8-12.2,13.3-20.5,15.5c0,4.4-3.4,8-8,8c-1.5,0-2.9-0.5-4.1-1.1c-6,6.2-14.3,10.1-23.8,10.1
	c-9.3,0-17.6-3.9-23.8-10.1c-1.1,0.7-2.4,1-3.9,1c-4.4,0-8-3.4-8-8c-8.5-2.1-16.1-7.5-20.8-15.6c-2.9-5.2-4.4-10.7-4.4-16.4
	c0-2.6,0.5-5.5,1.1-8.3c-3.3-1-5.7-4.1-5.7-7.7s2.4-6.7,5.7-7.7c-0.8-2.6-1.1-5.5-1.1-8.3c0-5.7,1.5-11.2,4.4-16.4
	c4.7-8,12.5-13.7,20.8-15.6c0-4.4,3.4-8,8-8c1.5,0,2.6,0.3,3.9,1c6-6.2,14.5-10.1,23.8-10.1s17.7,3.9,23.8,10.1
	c1.1-0.8,2.6-1.1,4.1-1.1c4.4,0,8,3.4,8,8c8.5,2.1,16,7.3,20.5,15.5c4.7,8,5.7,17.4,3.3,25.7c2.3,1.5,3.9,4.1,3.9,7
	s-1.6,5.5-3.9,7.2C217.7,84.5,216.9,93.8,212.1,102L212.1,102z"/>
<linearGradient id="SVGID_10_" gradientUnits="userSpaceOnUse" x1="120.9371" y1="-9.1007" x2="189.706" y2="-128.2123" gradientTransform="matrix(1 0 0 -1 0 0)">
	<stop  offset="0" style="stop-color:#16FDC4"/>
	<stop  offset="1" style="stop-color:#02A5F9"/>
</linearGradient>
<path class="st10" d="M183.3,87.1c-5.7,8.6-15.1,14.3-26,15c2.6,3.9,6.2,7.5,10.6,9.9c4.7,2.6,9.9,4.1,15,4.2
	c2.4-4.6,3.9-9.8,3.7-15.1C186.6,96.1,185.6,91.4,183.3,87.1z"/>
<linearGradient id="SVGID_11_" gradientUnits="userSpaceOnUse" x1="100.0162" y1="-21.1799" x2="168.7853" y2="-140.2911" gradientTransform="matrix(1 0 0 -1 0 0)">
	<stop  offset="0" style="stop-color:#16FDC4"/>
	<stop  offset="1" style="stop-color:#02A5F9"/>
</linearGradient>
<path class="st11" d="M160.7,109.1c-1.5,1.1-3.1,1.6-4.9,1.6c-2,0-3.6-0.7-5-2c-2,2-4.1,3.4-6.3,4.7c-4.7,2.6-9.8,4.1-14.8,4.4
	c5.5,8.5,15.1,14.2,26,14.2c11.1,0,20.5-5.7,26.2-14.2c-5-0.3-10.1-1.6-14.8-4.4C164.6,112.4,162.7,110.7,160.7,109.1z"/>
<linearGradient id="SVGID_12_" gradientUnits="userSpaceOnUse" x1="76.9426" y1="-34.501" x2="145.7115" y2="-153.6125" gradientTransform="matrix(1 0 0 -1 0 0)">
	<stop  offset="0" style="stop-color:#16FDC4"/>
	<stop  offset="1" style="stop-color:#02A5F9"/>
</linearGradient>
<path class="st12" d="M123.8,91.5c-2.3-1.3-3.9-3.9-3.9-6.7c-2.9-0.7-5.9-2-8.6-3.4c-4.6-2.6-8.3-6.3-11.1-10.6
	c-2.1,4.4-3.3,9.3-3.3,14.2c0,5.2,1.3,10.6,4.2,15.5c5.5,9.4,15,14.8,25.1,15.1c-2.3-4.4-3.6-9.6-3.6-15
	C122.5,97.6,122.8,94.5,123.8,91.5z"/>
<linearGradient id="SVGID_13_" gradientUnits="userSpaceOnUse" x1="92.7366" y1="-25.3824" x2="161.5057" y2="-144.4936" gradientTransform="matrix(1 0 0 -1 0 0)">
	<stop  offset="0" style="stop-color:#16FDC4"/>
	<stop  offset="1" style="stop-color:#02A5F9"/>
</linearGradient>
<path class="st13" d="M153.9,102.1c-11.1-0.5-20.3-6.5-26-15c-2.1,4.2-3.3,9-3.3,14c0,5.4,1.5,10.6,3.7,15.1
	c5.2-0.2,10.3-1.5,15-4.2C147.7,109.4,151.3,106.2,153.9,102.1z"/>
<path class="st0" d="M165.8,58.3c-1.6-3.7-5.5-4.6-10.1-3.7l-1.6-5.9l-3.6,1l1.5,5.9c-1,0.2-2,0.5-2.8,0.7l-1.5-5.9l-3.6,1l1.5,5.9
	c-0.8,0.2-7.2,1.8-7.2,1.8l1,3.7l2.6-0.7c1.5-0.3,2.1,0.3,2.4,1l4.1,16c0,0.5,0,1.3-1,1.5l-2.6,0.7l0.3,4.4c0,0,6.3-1.6,7.2-1.8
	l1.5,5.9l3.6-1l-1.3-5.7c1-0.2,2-0.5,2.8-0.7l1.5,5.9l3.6-1l-1.5-5.9c5.5-1.3,9.3-4.7,8.5-10.1c-0.5-3.1-3.9-5.7-6.8-6
	C165.9,63.7,166.9,61.3,165.8,58.3z M164.1,72.2c0.7,5.2-6.5,5.9-9,6.5l-2.1-7.8C155.5,70.2,162.8,67.6,164.1,72.2z M159.7,61.6
	c0.8,4.6-5.4,5.2-7.5,5.7l-2-7C152.4,59.8,158.1,57.3,159.7,61.6z"/>
<linearGradient id="SVGID_14_" gradientUnits="userSpaceOnUse" x1="-149.0277" y1="1686.7825" x2="-87.2234" y2="1686.7825" gradientTransform="matrix(0.5768 0.8169 0.8169 -0.5768 -1154.0978 1138.5328)">
	<stop  offset="0" style="stop-color:#16FDC4"/>
	<stop  offset="1" style="stop-color:#02A5F9"/>
</linearGradient>
<circle class="st14" cx="155.7" cy="69.1" r="30.9"/>
<path class="st0" d="M165.4,58.7c-1.6-3.6-5-4.2-9.4-3.6l-1.5-5.4l-3.3,0.8l1.3,5.4c-0.8,0.2-1.8,0.5-2.6,0.7l-1.3-5.4l-3.3,0.8
	l1.5,5.4c-0.7,0.2-6.7,1.8-6.7,1.8l1,3.6l2.4-0.7c1.3-0.3,2,0.3,2.3,1l3.9,15c0,0.5,0,1.1-1,1.5l-2.4,0.7l0.3,4.1
	c0,0,5.9-1.5,6.7-1.6l1.5,5.5l3.3-0.8l-1.5-5.5c1-0.2,1.8-0.5,2.6-0.7l1.5,5.5L164,86l-1.5-5.5c5-1.3,8.6-4.4,8-9.4
	c-0.5-2.9-3.7-5.4-6.3-5.7C165.6,63.7,166.4,61.6,165.4,58.7z M163.8,71.7c0.7,4.9-6,5.5-8.3,6l-2-7.2
	C155.7,69.9,162.7,67.4,163.8,71.7z M159.7,61.7c0.7,4.4-5,4.9-7,5.4l-1.8-6.7C152.9,60,158.3,57.8,159.7,61.7z"/>
<g>
	<path class="st15" d="M0.2,173.6h22.4v2.8H3.2v13.1h19v2.8h-19v14h19.4v2.8H0.2V173.6z"/>
	<path class="st15" d="M30,173.6h2.8v35.3H30V173.6z"/>
	<path class="st15" d="M52.2,182.7c7.8,0,12.1,6.2,12.1,13.6v0.7H42.9c0.3,5.6,4,10.2,10,10.2c3.3,0,6.2-1.2,8.4-3.6l1.4,1.8
		c-2.5,2.7-5.8,4.1-10,4.1c-7.5,0-12.8-5.6-12.8-13.5C39.8,188.7,45.1,182.7,52.2,182.7z M42.9,194.8h18.6c-0.1-4.3-2.9-9.8-9.3-9.8
		C46.1,185.1,43.1,190.4,42.9,194.8z"/>
	<path class="st15" d="M82.3,182.7c4.4,0,7,1.7,9.1,4.3l-1.9,1.7c-1.9-2.5-4.2-3.6-7-3.6c-6,0-9.6,4.8-9.6,10.9s3.7,11,9.6,11
		c2.8,0,5.1-1.1,7-3.6l1.9,1.7c-2.1,2.6-4.7,4.4-9.1,4.4c-7.5,0-12.5-6-12.5-13.5C69.9,188.6,74.8,182.7,82.3,182.7z"/>
	<path class="st15" d="M98.1,204v-18.2h-4.3v-2.5H98v-7h2.8v7h5.2v2.5h-5.2v17.8c0,2.1,0.8,3.5,2.6,3.5c1.2,0,2.3-0.6,2.9-1.2
		l1.1,2.1c-1,1-2.2,1.6-4.3,1.6C99.7,209.5,98.1,207.5,98.1,204z"/>
	<path class="st15" d="M112.1,183.3h2.8v4.4c2.2-2.9,5.1-4.9,8.6-4.9v3c-0.5-0.1-0.8-0.1-1.4-0.1c-2.6,0-6.1,2.3-7.3,4.6v18.6H112
		L112.1,183.3L112.1,183.3z"/>
	<path class="st15" d="M146.2,205.1c-2.1,2.3-5.5,4.4-9.2,4.4c-5.2,0-8.1-2.4-8.1-8.2v-18h2.8v17.4c0,5,2.5,6.4,6.2,6.4
		c3.3,0,6.6-2,8.3-4.2v-19.5h2.8v25.5h-2.8V205.1z"/>
	<path class="st15" d="M185.9,191c0-3.6-1.5-5.8-5.1-5.8c-2.8,0-5.9,2-7.3,4.3v19.4h-2.8V191c0-3.6-1.5-5.8-5.1-5.8
		c-2.7,0-5.8,2.1-7.3,4.4v19.3h-2.8v-25.6h2.8v3.9c1.1-1.6,4.6-4.5,8.3-4.5c4,0,6.1,2.3,6.7,4.8c1.4-2.4,4.9-4.8,8.5-4.8
		c4.7,0,7,2.6,7,7.8v18.4H186V191H185.9z"/>
	<path class="st15" d="M209.8,190.4c0.6-10.8,8.8-17.8,18.7-17.3c5.7,0.3,9.8,3,12.6,6.9l-2.6,1.5c-2.1-3.2-5.8-5.5-10.2-5.7
		c-8.2-0.4-14.9,5.5-15.4,14.7c-0.5,9.1,5.6,15.8,13.8,16.3c4.3,0.2,8.3-1.6,10.7-4.6l2.5,1.7c-3.3,3.7-7.6,5.9-13.3,5.6
		C216.7,209.1,209.2,201.3,209.8,190.4z"/>
	<path class="st15" d="M262.9,205.9c-2.3,2.5-5.1,3.7-8.7,3.7c-4.4,0-9-3-9-8.5c0-5.6,4.5-8.4,9-8.4c3.5,0,6.4,1.1,8.7,3.6v-5.2
		c0-3.8-3.1-5.9-6.9-5.9c-3.2,0-5.7,1.1-8,3.8l-1.5-1.9c2.6-2.9,5.6-4.3,9.8-4.3c5.2,0,9.4,2.5,9.4,8.2v18h-2.8V205.9z M262.9,198.2
		c-1.8-2.3-4.7-3.6-7.7-3.6c-4.2,0-7,2.8-7,6.4s2.8,6.3,7,6.3c3.1,0,5.9-1.2,7.7-3.5V198.2z"/>
	<path class="st15" d="M272.6,203.4c1.6,2.1,4.6,3.8,8.3,3.8c4.3,0,6.8-2.1,6.8-5.1c0-3.3-3.5-4.2-7.2-5.2c-4.2-1.1-9-2.2-9-7.2
		c0-3.9,3.3-7.1,9.1-7.1c4.4,0,7.3,1.7,9.2,3.8l-1.5,1.9c-1.5-2-4.2-3.4-7.6-3.4c-4,0-6.4,2-6.4,4.6c0,2.9,3.3,3.7,6.8,4.6
		c4.4,1.1,9.3,2.3,9.3,7.8c0,4.1-3.2,7.5-9.6,7.5c-4.1,0-7.3-1.2-9.9-4L272.6,203.4z"/>
	<path class="st15" d="M313.7,191.5c0-4.9-2.5-6.3-6.2-6.3c-3.3,0-6.7,2.1-8.3,4.4v19.3h-2.8v-35.3h2.8v13.6
		c1.9-2.2,5.5-4.5,9.2-4.5c5.2,0,8.1,2.4,8.1,8.2v18h-2.8L313.7,191.5L313.7,191.5z"/>
</g>
<g>
	<path class="st16" d="M1.6,232.7c0.4,0.5,1,0.9,1.8,0.9c1.2,0,1.9-0.8,1.9-2v-6.5h1.2v6.6c0,2-1.3,3-3,3c-1,0-1.8-0.3-2.4-1.1
		L1.6,232.7z"/>
	<path class="st16" d="M13.1,233.7c-0.6,0.6-1.3,0.9-2.3,0.9c-1.2,0-2.4-0.8-2.4-2.3c0-1.5,1.2-2.2,2.4-2.2c0.9,0,1.7,0.3,2.3,0.9
		v-1.2c0-0.9-0.7-1.4-1.7-1.4c-0.8,0-1.5,0.3-2.1,0.9l-0.5-0.7c0.7-0.8,1.6-1.1,2.7-1.1c1.4,0,2.6,0.6,2.6,2.3v4.7h-1.1V233.7z
		 M13.1,231.8c-0.4-0.6-1.1-0.8-1.9-0.8c-1,0-1.7,0.6-1.7,1.5c0,0.9,0.7,1.5,1.7,1.5c0.7,0,1.5-0.3,1.9-0.8V231.8z"/>
	<path class="st16" d="M15.6,227.7h1.1l2.3,5.6l2.3-5.6h1.2l-2.8,6.8h-1.2L15.6,227.7z"/>
	<path class="st16" d="M28,233.7c-0.6,0.6-1.3,0.9-2.3,0.9c-1.2,0-2.4-0.8-2.4-2.3c0-1.5,1.2-2.2,2.4-2.2c0.9,0,1.7,0.3,2.3,0.9
		v-1.2c0-0.9-0.7-1.4-1.7-1.4c-0.8,0-1.5,0.3-2.1,0.9l-0.5-0.7c0.7-0.8,1.6-1.1,2.7-1.1c1.4,0,2.6,0.6,2.6,2.3v4.7H28V233.7z
		 M28,231.8c-0.4-0.6-1.1-0.8-1.9-0.8c-1,0-1.7,0.6-1.7,1.5c0,0.9,0.7,1.5,1.7,1.5c0.7,0,1.5-0.3,1.9-0.8V231.8z"/>
	<path class="st16" d="M31.4,232.8c0.5,0.5,1.3,1,2.2,1c1,0,1.6-0.5,1.6-1.1c0-0.7-0.8-1-1.7-1.2c-1.2-0.3-2.5-0.6-2.5-2
		c0-1.1,0.9-2,2.5-2c1.2,0,2,0.4,2.5,1l-0.5,0.7c-0.4-0.5-1.2-0.9-2-0.9c-0.9,0-1.5,0.4-1.5,1c0,0.7,0.8,0.9,1.7,1.1
		c1.2,0.3,2.5,0.6,2.5,2.1c0,1.1-0.9,2.1-2.7,2.1c-1.1,0-2.1-0.3-2.7-1.1L31.4,232.8z"/>
	<path class="st16" d="M41.3,227.5c1.2,0,2,0.5,2.5,1.2l-0.7,0.6c-0.5-0.6-1-0.9-1.7-0.9c-1.4,0-2.3,1.1-2.3,2.6
		c0,1.5,0.9,2.6,2.3,2.6c0.7,0,1.3-0.3,1.7-0.9l0.7,0.6c-0.5,0.7-1.3,1.2-2.5,1.2c-2,0-3.4-1.5-3.4-3.6
		C37.9,229.1,39.2,227.5,41.3,227.5z"/>
	<path class="st16" d="M45.5,227.7h1.1v1.1c0.5-0.7,1.3-1.2,2.3-1.2v1.1c-0.1,0-0.3,0-0.4,0c-0.6,0-1.5,0.5-1.8,1.1v4.8h-1.1V227.7z
		"/>
	<path class="st16" d="M50.3,225.8c0-0.4,0.3-0.7,0.7-0.7c0.4,0,0.7,0.3,0.7,0.7c0,0.4-0.3,0.7-0.7,0.7
		C50.6,226.5,50.3,226.2,50.3,225.8z M50.4,227.7h1.1v6.8h-1.1V227.7z"/>
	<path class="st16" d="M53.9,237.1v-9.4h1.1v1c0.5-0.7,1.3-1.2,2.3-1.2c1.8,0,3,1.4,3,3.6c0,2.2-1.2,3.6-3,3.6
		c-0.9,0-1.7-0.4-2.3-1.2v3.6H53.9z M57,228.4c-0.8,0-1.7,0.5-2,1.1v3.1c0.4,0.6,1.2,1.1,2,1.1c1.4,0,2.2-1.1,2.2-2.6
		C59.2,229.6,58.3,228.4,57,228.4z"/>
	<path class="st16" d="M62.5,233v-4.4h-1.1v-0.9h1.1v-1.9h1.1v1.9h1.4v0.9h-1.4v4.2c0,0.5,0.2,0.9,0.7,0.9c0.3,0,0.6-0.1,0.7-0.3
		l0.3,0.8c-0.3,0.3-0.6,0.4-1.3,0.4C63,234.6,62.5,234.1,62.5,233z"/>
	<path class="st16" d="M70.9,224.8h0.8l-3.3,9.9h-0.8L70.9,224.8z"/>
	<path class="st16" d="M76.8,226.1h-3v-1H81v1h-3v8.3h-1.2V226.1z"/>
	<path class="st16" d="M82.2,236.3c0.5,0,0.8-0.2,1-0.7l0.5-1l-2.8-6.9H82l2.3,5.6l2.3-5.6h1.2l-3.4,8.2c-0.4,1-1.1,1.4-2,1.4
		c-0.2,0-0.6,0-0.8-0.1l0.2-1C81.8,236.2,82,236.3,82.2,236.3z"/>
	<path class="st16" d="M89,237.1v-9.4h1.1v1c0.5-0.7,1.3-1.2,2.3-1.2c1.8,0,3,1.4,3,3.6c0,2.2-1.2,3.6-3,3.6c-0.9,0-1.7-0.4-2.3-1.2
		v3.6H89z M92.1,228.4c-0.8,0-1.7,0.5-2,1.1v3.1c0.4,0.6,1.2,1.1,2,1.1c1.4,0,2.2-1.1,2.2-2.6C94.3,229.6,93.4,228.4,92.1,228.4z"/>
	<path class="st16" d="M100.3,227.5c2.1,0,3.3,1.6,3.3,3.6v0.3h-5.5c0.1,1.3,1,2.3,2.4,2.3c0.8,0,1.6-0.3,2.1-0.9l0.5,0.7
		c-0.7,0.7-1.6,1-2.7,1c-2,0-3.5-1.4-3.5-3.6C97,229.1,98.4,227.5,100.3,227.5z M98.1,230.6h4.5c0-1-0.7-2.3-2.2-2.3
		C98.9,228.4,98.1,229.6,98.1,230.6z"/>
	<path class="st16" d="M105.5,232.8c0.5,0.5,1.3,1,2.2,1c1,0,1.6-0.5,1.6-1.1c0-0.7-0.8-1-1.7-1.2c-1.2-0.3-2.5-0.6-2.5-2
		c0-1.1,0.9-2,2.5-2c1.2,0,2,0.4,2.5,1l-0.5,0.7c-0.4-0.5-1.2-0.9-2-0.9c-0.9,0-1.5,0.4-1.5,1c0,0.7,0.8,0.9,1.7,1.1
		c1.2,0.3,2.5,0.6,2.5,2.1c0,1.1-0.9,2.1-2.7,2.1c-1.1,0-2.1-0.3-2.7-1.1L105.5,232.8z"/>
	<path class="st16" d="M115.4,227.5c1.2,0,2,0.5,2.5,1.2l-0.7,0.6c-0.5-0.6-1-0.9-1.7-0.9c-1.4,0-2.3,1.1-2.3,2.6
		c0,1.5,0.9,2.6,2.3,2.6c0.7,0,1.3-0.3,1.7-0.9l0.7,0.6c-0.5,0.7-1.3,1.2-2.5,1.2c-2,0-3.4-1.5-3.4-3.6
		C112,229.1,113.4,227.5,115.4,227.5z"/>
	<path class="st16" d="M119.6,227.7h1.1v1.1c0.5-0.7,1.3-1.2,2.3-1.2v1.1c-0.1,0-0.3,0-0.4,0c-0.6,0-1.5,0.5-1.8,1.1v4.8h-1.1V227.7
		z"/>
	<path class="st16" d="M124.4,225.8c0-0.4,0.3-0.7,0.7-0.7c0.4,0,0.7,0.3,0.7,0.7c0,0.4-0.3,0.7-0.7,0.7
		C124.7,226.5,124.4,226.2,124.4,225.8z M124.6,227.7h1.1v6.8h-1.1V227.7z"/>
	<path class="st16" d="M128,237.1v-9.4h1.1v1c0.5-0.7,1.3-1.2,2.3-1.2c1.8,0,3,1.4,3,3.6c0,2.2-1.2,3.6-3,3.6
		c-0.9,0-1.7-0.4-2.3-1.2v3.6H128z M131.1,228.4c-0.8,0-1.7,0.5-2,1.1v3.1c0.4,0.6,1.2,1.1,2,1.1c1.4,0,2.2-1.1,2.2-2.6
		C133.3,229.6,132.4,228.4,131.1,228.4z"/>
	<path class="st16" d="M136.6,233v-4.4h-1.1v-0.9h1.1v-1.9h1.1v1.9h1.4v0.9h-1.4v4.2c0,0.5,0.2,0.9,0.7,0.9c0.3,0,0.6-0.1,0.7-0.3
		l0.3,0.8c-0.3,0.3-0.6,0.4-1.3,0.4C137.1,234.6,136.6,234.1,136.6,233z"/>
	<path class="st16" d="M144.7,225.1h1.1v9.4h-1.1V225.1z"/>
	<path class="st16" d="M147.9,225.8c0-0.4,0.3-0.7,0.7-0.7c0.4,0,0.7,0.3,0.7,0.7c0,0.4-0.3,0.7-0.7,0.7
		C148.3,226.5,147.9,226.2,147.9,225.8z M148.1,227.7h1.1v6.8h-1.1V227.7z"/>
	<path class="st16" d="M151.6,225.1h1.1v3.6c0.5-0.7,1.4-1.2,2.3-1.2c1.8,0,3,1.4,3,3.6c0,2.2-1.3,3.6-3,3.6c-1,0-1.8-0.5-2.3-1.2v1
		h-1.1V225.1z M154.7,233.7c1.4,0,2.2-1.1,2.2-2.6s-0.8-2.6-2.2-2.6c-0.8,0-1.7,0.5-2,1.1v3.1C153,233.2,153.8,233.7,154.7,233.7z"
		/>
	<path class="st16" d="M159.9,227.7h1.1v1.1c0.5-0.7,1.3-1.2,2.3-1.2v1.1c-0.1,0-0.3,0-0.4,0c-0.6,0-1.5,0.5-1.8,1.1v4.8h-1.1V227.7
		z"/>
	<path class="st16" d="M169.1,233.7c-0.6,0.6-1.3,0.9-2.3,0.9c-1.2,0-2.4-0.8-2.4-2.3c0-1.5,1.2-2.2,2.4-2.2c0.9,0,1.7,0.3,2.3,0.9
		v-1.2c0-0.9-0.7-1.4-1.7-1.4c-0.8,0-1.5,0.3-2.1,0.9l-0.5-0.7c0.7-0.8,1.6-1.1,2.7-1.1c1.4,0,2.6,0.6,2.6,2.3v4.7h-1.1V233.7z
		 M169.1,231.8c-0.4-0.6-1.1-0.8-1.9-0.8c-1,0-1.7,0.6-1.7,1.5c0,0.9,0.7,1.5,1.7,1.5c0.7,0,1.5-0.3,1.9-0.8V231.8z"/>
	<path class="st16" d="M172.6,227.7h1.1v1.1c0.5-0.7,1.3-1.2,2.3-1.2v1.1c-0.1,0-0.3,0-0.4,0c-0.6,0-1.5,0.5-1.8,1.1v4.8h-1.1V227.7
		z"/>
	<path class="st16" d="M177.9,236.3c0.5,0,0.8-0.2,1-0.7l0.5-1l-2.8-6.9h1.1l2.3,5.6l2.3-5.6h1.2l-3.4,8.2c-0.4,1-1.1,1.4-2,1.4
		c-0.2,0-0.6,0-0.8-0.1l0.2-1C177.4,236.2,177.7,236.3,177.9,236.3z"/>
	<path class="st16" d="M188.9,228.6h-1.1v-0.9h1.1v-0.5c0-1.4,0.8-2.2,2-2.2c0.4,0,0.8,0.1,1,0.2l-0.3,0.8c-0.2-0.1-0.4-0.2-0.6-0.2
		c-0.7,0-1.1,0.5-1.1,1.3v0.5h1.4v0.9h-1.4v5.9h-1.1V228.6z"/>
	<path class="st16" d="M192.4,231.1c0-2,1.3-3.6,3.4-3.6c2.1,0,3.4,1.6,3.4,3.6c0,2-1.3,3.6-3.4,3.6
		C193.7,234.6,192.4,233,192.4,231.1z M198.1,231.1c0-1.4-0.8-2.6-2.3-2.6c-1.4,0-2.3,1.2-2.3,2.6c0,1.4,0.8,2.6,2.3,2.6
		C197.3,233.7,198.1,232.5,198.1,231.1z"/>
	<path class="st16" d="M201.2,227.7h1.1v1.1c0.5-0.7,1.3-1.2,2.3-1.2v1.1c-0.1,0-0.3,0-0.4,0c-0.6,0-1.5,0.5-1.8,1.1v4.8h-1.1V227.7
		z"/>
	<path class="st16" d="M213.5,227.5c2.1,0,3.3,1.6,3.3,3.6v0.3h-5.5c0.1,1.3,1,2.3,2.4,2.3c0.8,0,1.6-0.3,2.1-0.9l0.5,0.7
		c-0.7,0.7-1.6,1-2.7,1c-2,0-3.5-1.4-3.5-3.6C210.2,229.1,211.6,227.5,213.5,227.5z M211.3,230.6h4.5c0-1-0.7-2.3-2.2-2.3
		C212.1,228.4,211.3,229.6,211.3,230.6z"/>
	<path class="st16" d="M218.8,225.1h1.1v9.4h-1.1V225.1z"/>
	<path class="st16" d="M225.2,227.5c2.1,0,3.3,1.6,3.3,3.6v0.3h-5.5c0.1,1.3,1,2.3,2.4,2.3c0.8,0,1.6-0.3,2.1-0.9l0.5,0.7
		c-0.7,0.7-1.6,1-2.7,1c-2,0-3.5-1.4-3.5-3.6C221.8,229.1,223.2,227.5,225.2,227.5z M222.9,230.6h4.5c0-1-0.7-2.3-2.2-2.3
		C223.7,228.4,223,229.6,222.9,230.6z"/>
	<path class="st16" d="M233.4,227.5c1.2,0,2,0.5,2.5,1.2l-0.7,0.6c-0.5-0.6-1-0.9-1.7-0.9c-1.4,0-2.3,1.1-2.3,2.6
		c0,1.5,0.9,2.6,2.3,2.6c0.7,0,1.3-0.3,1.7-0.9l0.7,0.6c-0.5,0.7-1.3,1.2-2.5,1.2c-2,0-3.4-1.5-3.4-3.6
		C230,229.1,231.4,227.5,233.4,227.5z"/>
	<path class="st16" d="M237.9,233v-4.4h-1.1v-0.9h1.1v-1.9h1.1v1.9h1.4v0.9h-1.4v4.2c0,0.5,0.2,0.9,0.7,0.9c0.3,0,0.6-0.1,0.7-0.3
		l0.3,0.8c-0.3,0.3-0.6,0.4-1.3,0.4C238.4,234.6,237.9,234.1,237.9,233z"/>
	<path class="st16" d="M242.1,227.7h1.1v1.1c0.5-0.7,1.3-1.2,2.3-1.2v1.1c-0.1,0-0.3,0-0.4,0c-0.6,0-1.5,0.5-1.8,1.1v4.8h-1.1V227.7
		z"/>
	<path class="st16" d="M251.6,233.5c-0.5,0.6-1.4,1.1-2.4,1.1c-1.4,0-2.2-0.7-2.2-2.2v-4.8h1.1v4.5c0,1.2,0.6,1.5,1.5,1.5
		c0.8,0,1.6-0.5,2-1v-5h1.1v6.8h-1.1V233.5z"/>
	<path class="st16" d="M263.2,229.9c0-0.9-0.4-1.4-1.3-1.4c-0.7,0-1.4,0.5-1.8,1v5h-1.1v-4.6c0-0.9-0.4-1.4-1.3-1.4
		c-0.7,0-1.4,0.5-1.8,1.1v5H255v-6.8h1.1v1c0.3-0.4,1.2-1.2,2.2-1.2c1,0,1.6,0.6,1.8,1.3c0.4-0.6,1.3-1.3,2.3-1.3
		c1.2,0,1.9,0.7,1.9,2.1v4.9h-1.1V229.9z"/>
	<path class="st16" d="M270.5,232.8c0.5,0.5,1.3,1,2.2,1c1,0,1.6-0.5,1.6-1.1c0-0.7-0.8-1-1.7-1.2c-1.2-0.3-2.5-0.6-2.5-2
		c0-1.1,0.9-2,2.5-2c1.2,0,2,0.4,2.5,1l-0.5,0.7c-0.4-0.5-1.2-0.9-2-0.9c-0.9,0-1.5,0.4-1.5,1c0,0.7,0.8,0.9,1.7,1.1
		c1.2,0.3,2.5,0.6,2.5,2.1c0,1.1-0.9,2.1-2.7,2.1c-1.1,0-2.1-0.3-2.7-1.1L270.5,232.8z"/>
	<path class="st16" d="M280.4,227.5c2.1,0,3.3,1.6,3.3,3.6v0.3h-5.5c0.1,1.3,1,2.3,2.4,2.3c0.8,0,1.6-0.3,2.1-0.9l0.5,0.7
		c-0.7,0.7-1.6,1-2.7,1c-2,0-3.5-1.4-3.5-3.6C277,229.1,278.4,227.5,280.4,227.5z M278.1,230.6h4.5c0-1-0.7-2.3-2.2-2.3
		C278.9,228.4,278.2,229.6,278.1,230.6z"/>
	<path class="st16" d="M285.6,227.7h1.1v1.1c0.5-0.7,1.3-1.2,2.3-1.2v1.1c-0.1,0-0.3,0-0.4,0c-0.6,0-1.5,0.5-1.8,1.1v4.8h-1.1V227.7
		z"/>
	<path class="st16" d="M289.5,227.7h1.1l2.3,5.6l2.3-5.6h1.2l-2.8,6.8h-1.2L289.5,227.7z"/>
	<path class="st16" d="M300.7,227.5c2.1,0,3.3,1.6,3.3,3.6v0.3h-5.5c0.1,1.3,1,2.3,2.4,2.3c0.8,0,1.6-0.3,2.1-0.9l0.5,0.7
		c-0.7,0.7-1.6,1-2.7,1c-2,0-3.5-1.4-3.5-3.6C297.3,229.1,298.7,227.5,300.7,227.5z M298.4,230.6h4.5c0-1-0.7-2.3-2.2-2.3
		C299.2,228.4,298.5,229.6,298.4,230.6z"/>
	<path class="st16" d="M305.9,227.7h1.1v1.1c0.5-0.7,1.3-1.2,2.3-1.2v1.1c-0.1,0-0.3,0-0.4,0c-0.6,0-1.5,0.5-1.8,1.1v4.8h-1.1V227.7
		z"/>
	<path class="st16" d="M310.8,232.8c0.5,0.5,1.3,1,2.2,1c1,0,1.6-0.5,1.6-1.1c0-0.7-0.8-1-1.7-1.2c-1.2-0.3-2.5-0.6-2.5-2
		c0-1.1,0.9-2,2.5-2c1.2,0,2,0.4,2.5,1l-0.5,0.7c-0.4-0.5-1.2-0.9-2-0.9c-0.9,0-1.5,0.4-1.5,1c0,0.7,0.8,0.9,1.7,1.1
		c1.2,0.3,2.5,0.6,2.5,2.1c0,1.1-0.9,2.1-2.7,2.1c-1.1,0-2.1-0.3-2.7-1.1L310.8,232.8z"/>
</g>
</svg>
